…
## Tidying the Data

After reading in the individual files of each song and creating neat
columns for the metadata related to each song, I end up with a tidy
dataframe called “lyrics”:

``` r
lyrics 
```

    # A tibble: 1,582 × 5
       file                    lyrics               track_type album_year song_title
       <chr>                   <chr>                <chr>      <chr>      <chr>     
     1 Nontitle_Ah_Yeah_15.csv 아 예 아 예 근데 뭐라구요?…… Nontitle   2015       Ah Yeah   
     2 Nontitle_Ah_Yeah_15.csv Yo $. Coup$, Here’s… Nontitle   2015       Ah Yeah   
     3 Nontitle_Ah_Yeah_15.csv 등장과 동시에 들러리들 바닥에서…… Nontitle   2015       Ah Yeah   
     4 Nontitle_Ah_Yeah_15.csv 침 흘리며 기절 그 위에서 수영해요… Nontitle   2015       Ah Yeah   
     5 Nontitle_Ah_Yeah_15.csv WOAH 옆구리 지방튜브 끼고 못 … Nontitle   2015       Ah Yeah   
     6 Nontitle_Ah_Yeah_15.csv 애들이 알리 있나     Nontitle   2015       Ah Yeah   
     7 Nontitle_Ah_Yeah_15.csv 못 뜬 이유 절대 모름 (Don’t… Nontitle   2015       Ah Yeah   
     8 Nontitle_Ah_Yeah_15.csv 맞출 생각 없어       Nontitle   2015       Ah Yeah   
     9 Nontitle_Ah_Yeah_15.csv 니 식견에 날 맞추지 말길…… Nontitle   2015       Ah Yeah   
    10 Nontitle_Ah_Yeah_15.csv 막 귀들 방구석 박혀 밖에 나오질 … Nontitle   2015       Ah Yeah   
    # ℹ 1,572 more rows

With this “lyrics” dataframe, I can then pivot the data to be longer,
making each word of the song lyrics its own row:

``` r
#putting each word of the lyrics as its own row and feeding it back into the dataframe
lyrics |> 
  unnest_tokens(word, "lyrics") |> arrange(desc(album_year)) -> lyrics
lyrics
```

    # A tibble: 6,418 × 5
       file                  track_type album_year song_title word    
       <chr>                 <chr>      <chr>      <chr>      <chr>   
     1 Nontitle_Candy_24.csv Nontitle   2024       Candy      우리    
     2 Nontitle_Candy_24.csv Nontitle   2024       Candy      사탕    
     3 Nontitle_Candy_24.csv Nontitle   2024       Candy      같은    
     4 Nontitle_Candy_24.csv Nontitle   2024       Candy      사랑해요
     5 Nontitle_Candy_24.csv Nontitle   2024       Candy      자그만  
     6 Nontitle_Candy_24.csv Nontitle   2024       Candy      말      
     7 Nontitle_Candy_24.csv Nontitle   2024       Candy      하나에도
     8 Nontitle_Candy_24.csv Nontitle   2024       Candy      기분이  
     9 Nontitle_Candy_24.csv Nontitle   2024       Candy      좋아질  
    10 Nontitle_Candy_24.csv Nontitle   2024       Candy      수      
    # ℹ 6,408 more rows
…
``` r
#mutating the dataframe to detect language of rows of lyrics and create language column
lyricdf <- lyrics |>
  mutate(
    word   = as.character(word),
  language = case_when(
  str_detect(word, "[가-힣]") ~ "Korean",
  str_detect(word, "[a-zA-z 12345]") ~ "English"
)) ->> lyricsdf
  
lyricsdf
```

    # A tibble: 6,418 × 6
       file                  track_type album_year song_title word     language
       <chr>                 <chr>      <chr>      <chr>      <chr>    <chr>   
     1 Nontitle_Candy_24.csv Nontitle   2024       Candy      우리     Korean  
     2 Nontitle_Candy_24.csv Nontitle   2024       Candy      사탕     Korean  
     3 Nontitle_Candy_24.csv Nontitle   2024       Candy      같은     Korean  
     4 Nontitle_Candy_24.csv Nontitle   2024       Candy      사랑해요 Korean  
     5 Nontitle_Candy_24.csv Nontitle   2024       Candy      자그만   Korean  
     6 Nontitle_Candy_24.csv Nontitle   2024       Candy      말       Korean  
     7 Nontitle_Candy_24.csv Nontitle   2024       Candy      하나에도 Korean  
     8 Nontitle_Candy_24.csv Nontitle   2024       Candy      기분이   Korean  
     9 Nontitle_Candy_24.csv Nontitle   2024       Candy      좋아질   Korean  
    10 Nontitle_Candy_24.csv Nontitle   2024       Candy      수       Korean  
    # ℹ 6,408 more rows
…
